<?xml version="1.0" encoding="UTF-8"?>
<glyph name="_part.Bbowl" format="2">
	<advance width="795"/>
	<outline>
		<contour>
			<point x="285" y="28" type="curve" smooth="yes"/>
			<point x="797" y="28"/>
			<point x="925" y="506"/>
			<point x="587" y="700" type="curve" smooth="yes"/>
			<point x="571" y="710"/>
			<point x="565" y="714"/>
			<point x="565" y="720" type="curve"/>
			<point x="537" y="720" type="line"/>
			<point x="537" y="718"/>
			<point x="529" y="706"/>
			<point x="505" y="706" type="curve" smooth="yes"/>
			<point x="471" y="706"/>
			<point x="471" y="720"/>
			<point x="469" y="720" type="curve" smooth="yes"/>
			<point x="85" y="720" type="line"/>
			<point x="85" y="706"/>
			<point x="89" y="696"/>
			<point x="41" y="682" type="curve" smooth="yes"/>
			<point x="5" y="672"/>
			<point x="19" y="612"/>
			<point x="49" y="612" type="curve" smooth="yes"/>
			<point x="79" y="612"/>
			<point x="101" y="636"/>
			<point x="101" y="660" type="curve" smooth="yes"/>
			<point x="101" y="684"/>
			<point x="101" y="708"/>
			<point x="165" y="708" type="curve" smooth="yes"/>
			<point x="191" y="708"/>
			<point x="191" y="692"/>
			<point x="191" y="688" type="curve" smooth="yes"/>
			<point x="191" y="684"/>
			<point x="189" y="672"/>
			<point x="173" y="672" type="curve" smooth="yes"/>
			<point x="157" y="672"/>
			<point x="161" y="688"/>
			<point x="141" y="688" type="curve" smooth="yes"/>
			<point x="121" y="688"/>
			<point x="121" y="670"/>
			<point x="121" y="664" type="curve" smooth="yes"/>
			<point x="121" y="658"/>
			<point x="119" y="644"/>
			<point x="163" y="644" type="curve" smooth="yes"/>
			<point x="207" y="644"/>
			<point x="207" y="668"/>
			<point x="207" y="674" type="curve" smooth="yes"/>
			<point x="207" y="680"/>
			<point x="211" y="704"/>
			<point x="247" y="704" type="curve" smooth="yes"/>
			<point x="273" y="704"/>
			<point x="249" y="652"/>
			<point x="289" y="652" type="curve" smooth="yes"/>
			<point x="337" y="652"/>
			<point x="299" y="700"/>
			<point x="341" y="700" type="curve" smooth="yes"/>
			<point x="361" y="700"/>
			<point x="363" y="684"/>
			<point x="363" y="680" type="curve" smooth="yes"/>
			<point x="363" y="664"/>
			<point x="323" y="662"/>
			<point x="323" y="650" type="curve" smooth="yes"/>
			<point x="323" y="638"/>
			<point x="337" y="626"/>
			<point x="367" y="626" type="curve" smooth="yes"/>
			<point x="397" y="626"/>
			<point x="437" y="646"/>
			<point x="437" y="676" type="curve" smooth="yes"/>
			<point x="437" y="692"/>
			<point x="437" y="700"/>
			<point x="449" y="700" type="curve" smooth="yes"/>
			<point x="475" y="700"/>
			<point x="465" y="612"/>
			<point x="363" y="612" type="curve" smooth="yes"/>
			<point x="321" y="612"/>
			<point x="313" y="590"/>
			<point x="313" y="580" type="curve" smooth="yes"/>
			<point x="313" y="570"/>
			<point x="317" y="526"/>
			<point x="387" y="526" type="curve" smooth="yes"/>
			<point x="409" y="526"/>
			<point x="413" y="526"/>
			<point x="413" y="516" type="curve" smooth="yes"/>
			<point x="413" y="506"/>
			<point x="379" y="492"/>
			<point x="379" y="456" type="curve" smooth="yes"/>
			<point x="379" y="420"/>
			<point x="393" y="370"/>
			<point x="435" y="370" type="curve" smooth="yes"/>
			<point x="463" y="370"/>
			<point x="463" y="406"/>
			<point x="463" y="414" type="curve" smooth="yes"/>
			<point x="463" y="422"/>
			<point x="463" y="432"/>
			<point x="455" y="444" type="curve" smooth="yes"/>
			<point x="447" y="456"/>
			<point x="433" y="448"/>
			<point x="433" y="464" type="curve" smooth="yes"/>
			<point x="433" y="480"/>
			<point x="451" y="486"/>
			<point x="467" y="486" type="curve" smooth="yes"/>
			<point x="483" y="486"/>
			<point x="499" y="472"/>
			<point x="499" y="426" type="curve" smooth="yes"/>
			<point x="499" y="380"/>
			<point x="485" y="396"/>
			<point x="485" y="364" type="curve" smooth="yes"/>
			<point x="485" y="332"/>
			<point x="521" y="312"/>
			<point x="541" y="312" type="curve" smooth="yes"/>
			<point x="561" y="312"/>
			<point x="583" y="324"/>
			<point x="583" y="362" type="curve" smooth="yes"/>
			<point x="583" y="392"/>
			<point x="559" y="388"/>
			<point x="559" y="416" type="curve" smooth="yes"/>
			<point x="559" y="426"/>
			<point x="567" y="432"/>
			<point x="573" y="432" type="curve" smooth="yes"/>
			<point x="599" y="432"/>
			<point x="579" y="380"/>
			<point x="603" y="380" type="curve" smooth="yes"/>
			<point x="627" y="380"/>
			<point x="623" y="402"/>
			<point x="623" y="406" type="curve" smooth="yes"/>
			<point x="623" y="452"/>
			<point x="559" y="460"/>
			<point x="559" y="496" type="curve" smooth="yes"/>
			<point x="559" y="510"/>
			<point x="567" y="514"/>
			<point x="579" y="514" type="curve" smooth="yes"/>
			<point x="609" y="514"/>
			<point x="623" y="456"/>
			<point x="653" y="456" type="curve" smooth="yes"/>
			<point x="683" y="456"/>
			<point x="679" y="492"/>
			<point x="679" y="502" type="curve" smooth="yes"/>
			<point x="679" y="522"/>
			<point x="667" y="524"/>
			<point x="667" y="542" type="curve" smooth="yes"/>
			<point x="667" y="560"/>
			<point x="681" y="562"/>
			<point x="685" y="562" type="curve" smooth="yes"/>
			<point x="725" y="562"/>
			<point x="765" y="426"/>
			<point x="751" y="390" type="curve" smooth="yes"/>
			<point x="749" y="382"/>
			<point x="745" y="380"/>
			<point x="739" y="380" type="curve" smooth="yes"/>
			<point x="733" y="380"/>
			<point x="725" y="384"/>
			<point x="725" y="392" type="curve" smooth="yes"/>
			<point x="725" y="400"/>
			<point x="737" y="410"/>
			<point x="737" y="430" type="curve" smooth="yes"/>
			<point x="737" y="450"/>
			<point x="721" y="458"/>
			<point x="709" y="458" type="curve" smooth="yes"/>
			<point x="697" y="458"/>
			<point x="661" y="450"/>
			<point x="661" y="416" type="curve" smooth="yes"/>
			<point x="661" y="390"/>
			<point x="733" y="378"/>
			<point x="733" y="322" type="curve" smooth="yes"/>
			<point x="733" y="278"/>
			<point x="711" y="274"/>
			<point x="707" y="274" type="curve" smooth="yes"/>
			<point x="703" y="274"/>
			<point x="691" y="276"/>
			<point x="691" y="290" type="curve" smooth="yes"/>
			<point x="691" y="304"/>
			<point x="711" y="302"/>
			<point x="711" y="324" type="curve" smooth="yes"/>
			<point x="711" y="346"/>
			<point x="699" y="380"/>
			<point x="649" y="380" type="curve" smooth="yes"/>
			<point x="609" y="380"/>
			<point x="603" y="344"/>
			<point x="603" y="334" type="curve" smooth="yes"/>
			<point x="603" y="290"/>
			<point x="639" y="296"/>
			<point x="657" y="284" type="curve" smooth="yes"/>
			<point x="673" y="274"/>
			<point x="683" y="260"/>
			<point x="683" y="240" type="curve" smooth="yes"/>
			<point x="683" y="220"/>
			<point x="679" y="186"/>
			<point x="595" y="148" type="curve" smooth="yes"/>
			<point x="585" y="144"/>
			<point x="579" y="154"/>
			<point x="579" y="158" type="curve" smooth="yes"/>
			<point x="579" y="190"/>
			<point x="657" y="190"/>
			<point x="657" y="232" type="curve" smooth="yes"/>
			<point x="657" y="274"/>
			<point x="599" y="288"/>
			<point x="583" y="288" type="curve" smooth="yes"/>
			<point x="541" y="288"/>
			<point x="521" y="258"/>
			<point x="521" y="224" type="curve" smooth="yes"/>
			<point x="521" y="190"/>
			<point x="533" y="148"/>
			<point x="533" y="138" type="curve" smooth="yes"/>
			<point x="533" y="114"/>
			<point x="489" y="78"/>
			<point x="445" y="78" type="curve" smooth="yes"/>
			<point x="431" y="78"/>
			<point x="423" y="84"/>
			<point x="423" y="90" type="curve" smooth="yes"/>
			<point x="423" y="96"/>
			<point x="437" y="122"/>
			<point x="473" y="122" type="curve" smooth="yes"/>
			<point x="479" y="122"/>
			<point x="483" y="120"/>
			<point x="487" y="120" type="curve" smooth="yes"/>
			<point x="491" y="120"/>
			<point x="499" y="120"/>
			<point x="499" y="132" type="curve" smooth="yes"/>
			<point x="499" y="144"/>
			<point x="489" y="152"/>
			<point x="475" y="152" type="curve" smooth="yes"/>
			<point x="451" y="152"/>
			<point x="401" y="138"/>
			<point x="401" y="80" type="curve" smooth="yes"/>
			<point x="401" y="66"/>
			<point x="387" y="62"/>
			<point x="381" y="62" type="curve" smooth="yes"/>
			<point x="375" y="62"/>
			<point x="359" y="64"/>
			<point x="359" y="92" type="curve" smooth="yes"/>
			<point x="359" y="120"/>
			<point x="393" y="134"/>
			<point x="405" y="142" type="curve" smooth="yes"/>
			<point x="417" y="150"/>
			<point x="501" y="192"/>
			<point x="501" y="260" type="curve" smooth="yes"/>
			<point x="501" y="328"/>
			<point x="447" y="346"/>
			<point x="439" y="346" type="curve" smooth="yes"/>
			<point x="409" y="346"/>
			<point x="383" y="324"/>
			<point x="383" y="256" type="curve" smooth="yes"/>
			<point x="383" y="188"/>
			<point x="307" y="140"/>
			<point x="247" y="140" type="curve" smooth="yes"/>
			<point x="209" y="140"/>
			<point x="201" y="172"/>
			<point x="177" y="172" type="curve" smooth="yes"/>
			<point x="163" y="172"/>
			<point x="161" y="158"/>
			<point x="161" y="152" type="curve" smooth="yes"/>
			<point x="161" y="124"/>
			<point x="191" y="114"/>
			<point x="191" y="90" type="curve" smooth="yes"/>
			<point x="191" y="40"/>
			<point x="243" y="28"/>
		</contour>
		<contour>
			<point x="235" y="74" type="curve" smooth="yes"/>
			<point x="219" y="74"/>
			<point x="213" y="104"/>
			<point x="235" y="104" type="curve" smooth="yes"/>
			<point x="265" y="104"/>
			<point x="251" y="74"/>
		</contour>
		<contour>
			<point x="327" y="56" type="curve" smooth="yes"/>
			<point x="299" y="56"/>
			<point x="261" y="72"/>
			<point x="277" y="82" type="curve" smooth="yes"/>
			<point x="299" y="96"/>
			<point x="285" y="114"/>
			<point x="305" y="114" type="curve" smooth="yes"/>
			<point x="347" y="114"/>
			<point x="355" y="56"/>
		</contour>
		<contour>
			<point x="337" y="132" type="curve" smooth="yes"/>
			<point x="335" y="136"/>
			<point x="335" y="150"/>
			<point x="379" y="176" type="curve" smooth="yes"/>
			<point x="411" y="196"/>
			<point x="419" y="230"/>
			<point x="421" y="250" type="curve" smooth="yes"/>
			<point x="423" y="270"/>
			<point x="415" y="296"/>
			<point x="441" y="296" type="curve" smooth="yes"/>
			<point x="485" y="296"/>
			<point x="471" y="232"/>
			<point x="445" y="216" type="curve" smooth="yes"/>
			<point x="397" y="188"/>
			<point x="393" y="150"/>
			<point x="367" y="138" type="curve" smooth="yes"/>
			<point x="341" y="126"/>
			<point x="339" y="128"/>
		</contour>
		<contour>
			<point x="59" y="642" type="curve" smooth="yes"/>
			<point x="43" y="642"/>
			<point x="49" y="664"/>
			<point x="61" y="664" type="curve" smooth="yes"/>
			<point x="75" y="664"/>
			<point x="75" y="642"/>
		</contour>
		<contour>
			<point x="557" y="182" type="curve" smooth="yes"/>
			<point x="535" y="182"/>
			<point x="553" y="262"/>
			<point x="583" y="262" type="curve" smooth="yes"/>
			<point x="617" y="262"/>
			<point x="623" y="238"/>
			<point x="623" y="230" type="curve" smooth="yes"/>
			<point x="623" y="222"/>
			<point x="615" y="216"/>
			<point x="599" y="216" type="curve" smooth="yes"/>
			<point x="583" y="216"/>
			<point x="579" y="182"/>
		</contour>
		<contour>
			<point x="423" y="402" type="curve" smooth="yes"/>
			<point x="405" y="402"/>
			<point x="405" y="434"/>
			<point x="421" y="434" type="curve" smooth="yes"/>
			<point x="445" y="434"/>
			<point x="441" y="402"/>
		</contour>
		<contour>
			<point x="535" y="346" type="curve" smooth="yes"/>
			<point x="527" y="346"/>
			<point x="511" y="346"/>
			<point x="511" y="386" type="curve" smooth="yes"/>
			<point x="511" y="426"/>
			<point x="519" y="428"/>
			<point x="519" y="448" type="curve" smooth="yes"/>
			<point x="519" y="460"/>
			<point x="507" y="484"/>
			<point x="531" y="484" type="curve" smooth="yes"/>
			<point x="563" y="484"/>
			<point x="531" y="448"/>
			<point x="531" y="426" type="curve" smooth="yes"/>
			<point x="531" y="404"/>
			<point x="555" y="388"/>
			<point x="555" y="370" type="curve" smooth="yes"/>
			<point x="555" y="352"/>
			<point x="543" y="346"/>
		</contour>
		<contour>
			<point x="669" y="304" type="curve" smooth="yes"/>
			<point x="649" y="304"/>
			<point x="671" y="334"/>
			<point x="651" y="334" type="curve" smooth="yes"/>
			<point x="639" y="334"/>
			<point x="643" y="316"/>
			<point x="637" y="316" type="curve" smooth="yes"/>
			<point x="631" y="316"/>
			<point x="623" y="326"/>
			<point x="623" y="338" type="curve" smooth="yes"/>
			<point x="623" y="350"/>
			<point x="633" y="364"/>
			<point x="653" y="364" type="curve" smooth="yes"/>
			<point x="673" y="364"/>
			<point x="681" y="350"/>
			<point x="681" y="344" type="curve" smooth="yes"/>
			<point x="681" y="338"/>
			<point x="677" y="338"/>
			<point x="677" y="332" type="curve" smooth="yes"/>
			<point x="677" y="326"/>
			<point x="689" y="322"/>
			<point x="689" y="318" type="curve" smooth="yes"/>
			<point x="689" y="314"/>
			<point x="689" y="304"/>
		</contour>
		<contour>
			<point x="383" y="650" type="curve" smooth="yes"/>
			<point x="377" y="650"/>
			<point x="371" y="654"/>
			<point x="371" y="660" type="curve" smooth="yes"/>
			<point x="371" y="666"/>
			<point x="379" y="670"/>
			<point x="385" y="676" type="curve" smooth="yes"/>
			<point x="395" y="684"/>
			<point x="385" y="698"/>
			<point x="397" y="698" type="curve" smooth="yes"/>
			<point x="419" y="698"/>
			<point x="423" y="650"/>
		</contour>
		<contour>
			<point x="495" y="570" type="curve" smooth="yes"/>
			<point x="477" y="570"/>
			<point x="473" y="580"/>
			<point x="473" y="584" type="curve" smooth="yes"/>
			<point x="473" y="588"/>
			<point x="475" y="600"/>
			<point x="495" y="600" type="curve" smooth="yes"/>
			<point x="515" y="600"/>
			<point x="511" y="616"/>
			<point x="527" y="616" type="curve" smooth="yes"/>
			<point x="549" y="616"/>
			<point x="535" y="570"/>
		</contour>
		<contour>
			<point x="509" y="494" type="curve" smooth="yes"/>
			<point x="493" y="494"/>
			<point x="487" y="528"/>
			<point x="473" y="532" type="curve" smooth="yes"/>
			<point x="449" y="538"/>
			<point x="409" y="540"/>
			<point x="409" y="572" type="curve" smooth="yes"/>
			<point x="409" y="604"/>
			<point x="433" y="614"/>
			<point x="441" y="614" type="curve" smooth="yes"/>
			<point x="449" y="614"/>
			<point x="461" y="610"/>
			<point x="461" y="594" type="curve" smooth="yes"/>
			<point x="461" y="578"/>
			<point x="443" y="580"/>
			<point x="443" y="570" type="curve" smooth="yes"/>
			<point x="443" y="560"/>
			<point x="465" y="548"/>
			<point x="483" y="548" type="curve" smooth="yes"/>
			<point x="507" y="548"/>
			<point x="565" y="562"/>
			<point x="565" y="606" type="curve" smooth="yes"/>
			<point x="565" y="640"/>
			<point x="537" y="644"/>
			<point x="529" y="644" type="curve" smooth="yes"/>
			<point x="521" y="644"/>
			<point x="505" y="636"/>
			<point x="495" y="636" type="curve" smooth="yes"/>
			<point x="485" y="636"/>
			<point x="477" y="640"/>
			<point x="477" y="650" type="curve" smooth="yes"/>
			<point x="477" y="660"/>
			<point x="487" y="692"/>
			<point x="531" y="692" type="curve" smooth="yes"/>
			<point x="567" y="692"/>
			<point x="613" y="666"/>
			<point x="613" y="656" type="curve" smooth="yes"/>
			<point x="613" y="650"/>
			<point x="609" y="650"/>
			<point x="607" y="650" type="curve" smooth="yes"/>
			<point x="605" y="650"/>
			<point x="589" y="660"/>
			<point x="583" y="660" type="curve" smooth="yes"/>
			<point x="577" y="660"/>
			<point x="569" y="658"/>
			<point x="569" y="636" type="curve" smooth="yes"/>
			<point x="569" y="614"/>
			<point x="577" y="590"/>
			<point x="603" y="590" type="curve" smooth="yes"/>
			<point x="629" y="590"/>
			<point x="635" y="616"/>
			<point x="635" y="620" type="curve" smooth="yes"/>
			<point x="635" y="624"/>
			<point x="639" y="630"/>
			<point x="651" y="630" type="curve" smooth="yes"/>
			<point x="663" y="630"/>
			<point x="669" y="620"/>
			<point x="669" y="608" type="curve" smooth="yes"/>
			<point x="669" y="596"/>
			<point x="655" y="588"/>
			<point x="637" y="588" type="curve" smooth="yes"/>
			<point x="627" y="588"/>
			<point x="629" y="576"/>
			<point x="629" y="572" type="curve" smooth="yes"/>
			<point x="629" y="568"/>
			<point x="627" y="556"/>
			<point x="605" y="556" type="curve" smooth="yes"/>
			<point x="583" y="556"/>
			<point x="579" y="564"/>
			<point x="563" y="564" type="curve" smooth="yes"/>
			<point x="547" y="564"/>
			<point x="525" y="548"/>
			<point x="525" y="532" type="curve" smooth="yes"/>
			<point x="525" y="516"/>
			<point x="525" y="494"/>
		</contour>
		<contour>
			<point x="649" y="478" type="curve" smooth="yes"/>
			<point x="637" y="478"/>
			<point x="639" y="496"/>
			<point x="629" y="504" type="curve" smooth="yes"/>
			<point x="617" y="514"/>
			<point x="607" y="540"/>
			<point x="627" y="544" type="curve" smooth="yes"/>
			<point x="645" y="548"/>
			<point x="659" y="520"/>
			<point x="659" y="510" type="curve" smooth="yes"/>
			<point x="659" y="500"/>
			<point x="655" y="500"/>
			<point x="655" y="494" type="curve" smooth="yes"/>
			<point x="655" y="488"/>
			<point x="657" y="478"/>
		</contour>
		<contour>
			<point x="599" y="608" type="curve" smooth="yes"/>
			<point x="587" y="608"/>
			<point x="575" y="636"/>
			<point x="601" y="636" type="curve" smooth="yes"/>
			<point x="625" y="636"/>
			<point x="611" y="608"/>
		</contour>
	</outline>
	<lib>
		<dict>
			<key>com.schriftgestaltung.Glyphs.Export</key>
			<false/>
			<key>public.markColor</key>
			<string>0,0.2,0.88,1</string>
		</dict>
	</lib>
</glyph>
