<?xml version="1.0" encoding="UTF-8"?>
<glyph name="Aacute" format="2">
	<advance width="1256"/>
	<unicode hex="00C1"/>
	<unicode hex="00E1"/>
	<outline>
		<component base="A"/>
		<component base="acute" xOffset="404"/>
	</outline>
	<lib>
		<dict>
			<key>public.markColor</key>
			<string>0.06,0.6,0.98,1</string>
		</dict>
	</lib>
</glyph>
