<?xml version="1.0" encoding="UTF-8"?>
<glyph name="macron" format="2">
	<advance width="556"/>
	<unicode hex="00AF"/>
	<outline>
		<component base="macroncomb"/>
	</outline>
	<lib>
		<dict>
			<key>public.markColor</key>
			<string>0.06,0.6,0.98,1</string>
		</dict>
	</lib>
</glyph>
