<?xml version="1.0" encoding="UTF-8"?>
<glyph name="Ncommaaccent" format="2">
	<advance width="1460"/>
	<unicode hex="0145"/>
	<unicode hex="0146"/>
	<outline>
		<component base="N"/>
		<component base="commaaccentcomb" xOffset="566"/>
	</outline>
	<lib>
		<dict>
			<key>public.markColor</key>
			<string>0.06,0.6,0.98,1</string>
		</dict>
	</lib>
</glyph>
